[
  {
    "model": "landing.landingpool",
    "pk": 1,
    "fields": {
      "user": 1,
      "name": "New landing pool 1",
      "is_active": true,
      "step": "complete",
      "created_at": "2022-04-18T16:16:56.516Z"
    }
  },
  {
    "model": "landing.landingpool",
    "pk": 2,
    "fields": {
      "user": 1,
      "name": "New landing pool 2",
      "is_active": true,
      "step": "complete",
      "created_at": "2022-04-18T16:17:38.764Z"
    }
  },
  {
    "model": "landing.landingpool",
    "pk": 3,
    "fields": {
      "user": 1,
      "name": "New landing pool 3",
      "is_active": true,
      "step": "analysis",
      "created_at": "2022-04-18T16:17:38.764Z"
    }
  },
  {
    "model": "landing.landingpool",
    "pk": 4,
    "fields": {
      "user": 1,
      "name": "New landing pool 4",
      "is_active": true,
      "step": "reviewing",
      "created_at": "2022-04-18T16:17:38.764Z"
    }
  },
  {
    "model": "landing.landingpool",
    "pk": 5,
    "fields": {
      "user": 1,
      "name": "New landing pool 5",
      "is_active": true,
      "step": "block",
      "created_at": "2022-04-18T16:17:38.764Z"
    }
  },
  {
    "model": "landing.landingpool",
    "pk": 6,
    "fields": {
      "user": 2,
      "name": "Any user's landing pool",
      "is_active": true,
      "step": "analysis",
      "created_at": "2022-05-24T11:58:57.057Z"
    }
  }
]
